<svg width="167" height="294" viewBox="0 0 167 294" fill="none" xmlns="http://www.w3.org/2000/svg">
    <path d="M146 274L20 146L147 20" stroke="#7230FF" stroke-width="40" stroke-linecap="round" stroke-linejoin="round"/>
</svg>
