<svg width="857" height="89" viewBox="0 0 857 89" fill="none" xmlns="http://www.w3.org/2000/svg">
    <path d="M79.58 87.75C82.3414 87.75 84.58 85.5114 84.58 82.75C84.58 79.9886 82.3414 77.75 79.58 77.75V87.75ZM7.89 82.75L7.87249 87.75L7.88124 87.75H7.89V82.75ZM5.05 79.91H0.0499992V79.9188L0.0500299 79.9275L5.05 79.91ZM8.78 5.34V0.34H8.76397L8.74795 0.340103L8.78 5.34ZM79.58 10.34C82.3414 10.34 84.58 8.10142 84.58 5.34C84.58 2.57858 82.3414 0.34 79.58 0.34V10.34ZM188.01 82.38C188.01 85.1414 190.249 87.38 193.01 87.38C195.771 87.38 198.01 85.1414 198.01 82.38H188.01ZM193.01 7.98H198.01V7.94546L198.01 7.91092L193.01 7.98ZM195.89 5.04V0.0400009H195.873L195.856 0.0401166L195.89 5.04ZM267.63 5.04L267.784 0.0423591L267.707 0.0400009H267.63V5.04ZM270.47 7.98L265.47 7.96058L265.47 7.97029V7.98H270.47ZM265.47 82.38C265.47 85.1414 267.709 87.38 270.47 87.38C273.231 87.38 275.47 85.1414 275.47 82.38H265.47ZM175.94 87.5C178.701 87.5 180.94 85.2614 180.94 82.5C180.94 79.7386 178.701 77.5 175.94 77.5V87.5ZM101.6 82.5V77.5H101.591L101.582 77.5L101.6 82.5ZM98.66 79.5L103.659 79.6195L103.66 79.5598V79.5H98.66ZM103.66 5.24C103.66 2.47858 101.421 0.24 98.66 0.24C95.8986 0.24 93.66 2.47858 93.66 5.24H103.66ZM369.89 79.5718C369.88 76.8104 367.633 74.58 364.872 74.59C362.11 74.6001 359.88 76.8468 359.89 79.6082L369.89 79.5718ZM362.11 82.42V87.42C362.134 87.42 362.157 87.4198 362.181 87.4195L362.11 82.42ZM290.33 77.42C287.569 77.42 285.33 79.6586 285.33 82.42C285.33 85.1814 287.569 87.42 290.33 87.42V77.42ZM282.5 7.85003C282.5 10.6115 284.739 12.85 287.5 12.85C290.261 12.85 292.5 10.6114 292.5 7.84997L282.5 7.85003ZM290.33 5.01V0.0100002H290.321L290.312 0.0100312L290.33 5.01ZM362.12 10.01C364.881 10.01 367.12 7.77142 367.12 5.01C367.12 2.24858 364.881 0.0100002 362.12 0.0100002V10.01ZM668.67 5.62C668.67 2.85858 666.431 0.620001 663.67 0.620001C660.909 0.620001 658.67 2.85858 658.67 5.62H668.67ZM663.67 78.9H658.67V78.9176L658.67 78.9351L663.67 78.9ZM660.83 81.79V86.79H660.856L660.882 86.7897L660.83 81.79ZM589.12 81.79L589.068 86.7897L589.094 86.79H589.12V81.79ZM586.29 78.9L591.29 78.9527L591.29 78.9264V78.9H586.29ZM591.29 5.62C591.29 2.85858 589.051 0.620001 586.29 0.620001C583.529 0.620001 581.29 2.85858 581.29 5.62H591.29ZM489.5 5.21V0.209999H484.5V5.21H489.5ZM489.5 82.61H484.5V87.61H489.5V82.61ZM383.12 83.38C383.12 86.1414 385.359 88.38 388.12 88.38C390.881 88.38 393.12 86.1414 393.12 83.38H383.12ZM393.12 6.04C393.12 3.27858 390.881 1.04 388.12 1.04C385.359 1.04 383.12 3.27858 383.12 6.04H393.12ZM471.24 5.04C471.24 2.27858 469.001 0.0400009 466.24 0.0400009C463.479 0.0400009 461.24 2.27858 461.24 5.04H471.24ZM461.24 82.38C461.24 85.1414 463.479 87.38 466.24 87.38C469.001 87.38 471.24 85.1414 471.24 82.38H461.24ZM851.53 86.99C854.291 86.99 856.53 84.7514 856.53 81.99C856.53 79.2286 854.291 76.99 851.53 76.99V86.99ZM779.8 81.99L779.765 86.9899L779.783 86.99H779.8V81.99ZM776.96 79.09L781.959 79.16L781.96 79.125V79.09H776.96ZM781.96 5.82C781.96 3.05858 779.721 0.82 776.96 0.82C774.199 0.82 771.96 3.05858 771.96 5.82H781.96ZM757.61 87.41C760.371 87.41 762.61 85.1714 762.61 82.41C762.61 79.6486 760.371 77.41 757.61 77.41V87.41ZM685.89 82.41V77.41H685.863L685.837 77.4103L685.89 82.41ZM683.05 79.59L688.05 79.6081L688.05 79.599V79.59H683.05ZM683.05 7.84L678.05 7.82249L678.05 7.83124V7.84H683.05ZM685.89 5V0H685.881L685.873 3.06713e-05L685.89 5ZM757.63 10C760.391 10 762.63 7.76142 762.63 5C762.63 2.23858 760.391 0 757.63 0V10ZM192.99 38.71C190.229 38.71 187.99 40.9486 187.99 43.71C187.99 46.4714 190.229 48.71 192.99 48.71V38.71ZM269.25 48.71C272.011 48.71 274.25 46.4714 274.25 43.71C274.25 40.9486 272.011 38.71 269.25 38.71V48.71ZM290.879 4.16271C288.853 2.28567 285.69 2.40594 283.813 4.43133C281.936 6.45671 282.056 9.62025 284.081 11.4973L290.879 4.16271ZM361.491 83.2373C363.517 85.1143 366.68 84.9941 368.557 82.9687C370.434 80.9433 370.314 77.7797 368.289 75.9027L361.491 83.2373ZM389.704 26.8175C387.079 25.9594 384.256 27.3916 383.398 30.0163C382.539 32.641 383.972 35.4644 386.596 36.3225L389.704 26.8175ZM464.686 61.8525C467.311 62.7106 470.134 61.2784 470.992 58.6537C471.851 56.029 470.418 53.2056 467.794 52.3475L464.686 61.8525ZM683.02 38.7C680.259 38.7 678.02 40.9386 678.02 43.7C678.02 46.4614 680.259 48.7 683.02 48.7V38.7ZM757.59 48.7C760.351 48.7 762.59 46.4614 762.59 43.7C762.59 40.9386 760.351 38.7 757.59 38.7V48.7ZM79.58 77.75H7.89V87.75H79.58V77.75ZM7.90751 77.75C8.47513 77.752 9.01892 77.9784 9.42026 78.3797L2.34919 85.4508C3.81461 86.9162 5.80006 87.7427 7.87249 87.75L7.90751 77.75ZM9.42026 78.3797C9.82161 78.7811 10.048 79.3249 10.05 79.8925L0.0500299 79.9275C0.0572889 81.9999 0.883779 83.9854 2.34919 85.4508L9.42026 78.3797ZM10.05 79.91V8.18H0.0499992V79.91H10.05ZM10.05 8.18C10.05 8.98741 9.76379 9.57057 9.56187 9.87068C9.37076 10.1547 9.20603 10.2688 9.18797 10.2814C9.17753 10.2887 9.17048 10.293 9.16693 10.2952C9.16505 10.2963 9.16376 10.297 9.16303 10.2974C9.16266 10.2976 9.16239 10.2977 9.16223 10.2978C9.16207 10.2979 9.16199 10.2979 9.16199 10.2979C9.16198 10.2979 9.16204 10.2979 9.16214 10.2979C9.16224 10.2978 9.16236 10.2978 9.16251 10.2977C9.16283 10.2976 9.16309 10.2974 9.16324 10.2974C9.16374 10.2972 9.16267 10.2976 9.15948 10.2987C9.15525 10.3002 9.13151 10.3082 9.08444 10.3169C9.03924 10.3253 8.94753 10.339 8.81205 10.3399L8.74795 0.340103C6.80484 0.352559 4.90489 1.07792 3.47203 2.07607C2.14933 2.99747 0.0499992 5.01953 0.0499992 8.18H10.05ZM8.78 10.34H79.58V0.34H8.78V10.34ZM198.01 82.38V7.98H188.01V82.38H198.01ZM198.01 7.91092C198.013 8.188 197.962 8.463 197.859 8.72011L188.575 5.00499C188.188 5.97243 187.996 7.00699 188.01 8.04908L198.01 7.91092ZM197.859 8.72011C197.757 8.97731 197.604 9.21159 197.41 9.40947L190.266 2.41167C189.537 3.1561 188.962 4.03746 188.575 5.00499L197.859 8.72011ZM197.41 9.40947C197.216 9.60731 196.985 9.76491 196.73 9.87313L192.824 0.667416C191.865 1.07446 190.995 1.66728 190.266 2.41167L197.41 9.40947ZM196.73 9.87313C196.475 9.98133 196.201 10.038 195.924 10.0399L195.856 0.0401166C194.814 0.0472039 193.784 0.260391 192.824 0.667416L196.73 9.87313ZM195.89 10.04H267.63V0.0400009H195.89V10.04ZM267.476 10.0376C266.937 10.0211 266.426 9.79476 266.051 9.40679L273.244 2.4591C271.808 0.972898 269.849 0.105813 267.784 0.0423591L267.476 10.0376ZM266.051 9.40679C265.676 9.01877 265.468 8.49985 265.47 7.96058L275.47 7.99942C275.478 5.93322 274.679 3.94535 273.244 2.4591L266.051 9.40679ZM265.47 7.98V82.38H275.47V7.98H265.47ZM175.94 77.5H101.6V87.5H175.94V77.5ZM101.582 77.5C101.858 77.499 102.132 77.5535 102.387 77.6601L98.531 86.8866C99.5089 87.2953 100.559 87.5039 101.618 87.5L101.582 77.5ZM102.387 77.6601C102.643 77.7668 102.874 77.9236 103.068 78.1212L95.9255 85.1205C96.6672 85.8774 97.5532 86.4779 98.531 86.8866L102.387 77.6601ZM103.068 78.1212C103.261 78.3187 103.413 78.5531 103.515 78.8105L94.2123 82.4797C94.6011 83.4656 95.1837 84.3635 95.9255 85.1205L103.068 78.1212ZM103.515 78.8105C103.616 79.0678 103.665 79.3429 103.659 79.6195L93.6614 79.3805C93.6361 80.44 93.8234 81.4939 94.2123 82.4797L103.515 78.8105ZM103.66 79.5V5.24H93.66V79.5H103.66ZM359.89 79.6082C359.888 79.034 360.113 78.4822 360.515 78.0726L367.649 85.0804C369.092 83.611 369.898 81.6315 369.89 79.5718L359.89 79.6082ZM360.515 78.0726C360.917 77.663 361.465 77.4286 362.039 77.4205L362.181 87.4195C364.24 87.3903 366.205 86.5497 367.649 85.0804L360.515 78.0726ZM362.11 77.42H290.33V87.42H362.11V77.42ZM292.5 7.84997C292.5 8.42152 292.273 8.96978 291.87 9.37464L284.787 2.31605C283.322 3.78555 282.5 5.77551 282.5 7.85003L292.5 7.84997ZM291.87 9.37464C291.467 9.77952 290.919 10.008 290.348 10.01L290.312 0.0100312C288.238 0.0173358 286.251 0.846535 284.787 2.31605L291.87 9.37464ZM290.33 10.01H362.12V0.0100002H290.33V10.01ZM658.67 5.62V78.9H668.67V5.62H658.67ZM658.67 78.9351C658.666 78.3713 658.886 77.8291 659.281 77.4272L666.413 84.4363C667.873 82.951 668.684 80.9476 668.67 78.8649L658.67 78.9351ZM659.281 77.4272C659.676 77.0252 660.214 76.7962 660.778 76.7903L660.882 86.7897C662.965 86.768 664.954 85.9217 666.413 84.4363L659.281 77.4272ZM660.83 76.79H589.12V86.79H660.83V76.79ZM589.172 76.7903C589.453 76.7932 589.731 76.8515 589.989 76.9617L586.066 86.16C587.016 86.565 588.036 86.779 589.068 86.7897L589.172 76.7903ZM589.989 76.9617C590.248 77.0721 590.482 77.2323 590.679 77.4329L583.534 84.4294C584.256 85.1668 585.116 85.7549 586.066 86.16L589.989 76.9617ZM590.679 77.4329C590.875 77.6337 591.031 77.8713 591.135 78.132L581.857 81.8615C582.242 82.8193 582.812 83.6918 583.534 84.4294L590.679 77.4329ZM591.135 78.132C591.24 78.3929 591.293 78.6717 591.29 78.9527L581.29 78.8473C581.279 79.8794 581.472 80.9037 581.857 81.8615L591.135 78.132ZM591.29 78.9V5.62H581.29V78.9H591.29ZM489.5 10.21H564.12V0.209999H489.5V10.21ZM564.12 10.21C563.545 10.21 562.993 9.98144 562.586 9.57442L569.657 2.50335C568.188 1.03488 566.197 0.209999 564.12 0.209999V10.21ZM562.586 9.57442C562.179 9.16737 561.95 8.61538 561.95 8.04H571.95C571.95 5.9635 571.125 3.97186 569.657 2.50335L562.586 9.57442ZM561.95 8.04V79.78H571.95V8.04H561.95ZM561.95 79.78C561.95 79.2046 562.179 78.6526 562.586 78.2456L569.657 85.3166C571.125 83.8481 571.95 81.8565 571.95 79.78H561.95ZM562.586 78.2456C562.993 77.8386 563.545 77.61 564.12 77.61V87.61C566.197 87.61 568.188 86.7851 569.657 85.3166L562.586 78.2456ZM564.12 77.61H489.5V87.61H564.12V77.61ZM494.5 82.61V5.21H484.5V82.61H494.5ZM393.12 83.38V6.04H383.12V83.38H393.12ZM461.24 5.04V82.38H471.24V5.04H461.24ZM851.53 76.99H779.8V86.99H851.53V76.99ZM779.834 76.9901C780.117 76.9921 780.396 77.0499 780.656 77.1601L776.749 86.3654C777.703 86.7705 778.729 86.9827 779.765 86.9899L779.834 76.9901ZM780.656 77.1601C780.916 77.2704 781.151 77.431 781.349 77.6328L774.204 84.6295C774.93 85.3704 775.795 85.9603 776.749 86.3654L780.656 77.1601ZM781.349 77.6328C781.546 77.8345 781.702 78.0733 781.807 78.3354L772.522 82.0489C772.907 83.0116 773.479 83.8887 774.204 84.6295L781.349 77.6328ZM781.807 78.3354C781.912 78.5976 781.963 78.8779 781.959 79.16L771.96 79.0199C771.946 80.0566 772.137 81.0861 772.522 82.0489L781.807 78.3354ZM781.96 79.09V5.82H771.96V79.09H781.96ZM757.61 77.41H685.89V87.41H757.61V77.41ZM685.837 77.4103C686.127 77.4072 686.415 77.4618 686.684 77.571L682.923 86.8367C683.882 87.226 684.908 87.4208 685.943 87.4097L685.837 77.4103ZM686.684 77.571C686.953 77.6801 687.197 77.8416 687.403 78.0461L680.357 85.1421C681.092 85.8715 681.964 86.4475 682.923 86.8367L686.684 77.571ZM687.403 78.0461C687.609 78.2506 687.772 78.494 687.883 78.7622L678.644 82.5886C679.04 83.5449 679.623 84.4129 680.357 85.1421L687.403 78.0461ZM687.883 78.7622C687.994 79.03 688.051 79.3176 688.05 79.6081L678.05 79.5719C678.046 80.6072 678.248 81.6326 678.644 82.5886L687.883 78.7622ZM688.05 79.59V7.84H678.05V79.59H688.05ZM688.05 7.85751C688.048 8.42534 687.822 8.96906 687.42 9.37026L680.349 2.29919C678.884 3.76446 678.057 5.74985 678.05 7.82249L688.05 7.85751ZM687.42 9.37026C687.019 9.77159 686.475 9.99798 685.908 9.99997L685.873 3.06713e-05C683.8 0.00728977 681.815 0.8338 680.349 2.29919L687.42 9.37026ZM685.89 10H757.63V0H685.89V10ZM192.99 48.71H269.25V38.71H192.99V48.71ZM284.081 11.4973L361.491 83.2373L368.289 75.9027L290.879 4.16271L284.081 11.4973ZM386.596 36.3225L464.686 61.8525L467.794 52.3475L389.704 26.8175L386.596 36.3225ZM683.02 48.7H757.59V38.7H683.02V48.7Z"
          fill="url(#paint0_linear)"/>
    <defs>
        <linearGradient id="paint0_linear" x1="97" y1="13.0002" x2="904" y2="83" gradientUnits="userSpaceOnUse">
            <stop stop-color="#0099FF"/>
            <stop offset="1" stop-color="#605FFF"/>
        </linearGradient>
    </defs>
</svg>
