<svg id="Слой_1" data-name="Слой 1" xmlns="http://www.w3.org/2000/svg" viewBox="0 0 87.41 87.45">
    <defs>
        <style>
            .cls-1,.cls-2,.cls-3{fill:none;stroke:#7230FF;stroke-width:10px;}.cls-1,.cls-3{stroke-linecap:round;}.cls-1{stroke-linejoin:round;}.cls-2,.cls-3{stroke-miterlimit:10;}
        </style>
    </defs>
    <title>Zeеt</title>
    <path class="cls-1" d="M18,92.6a2.85,2.85,0,0,0,2.84,2.84H92.57" transform="translate(-12.99 -12.99)"/>
    <path class="cls-2" d="M18,92.6" transform="translate(-12.99 -12.99)"/>
    <path class="cls-3" d="M95.4,20.83A2.84,2.84,0,0,0,92.57,18H20.83" transform="translate(-12.99 -12.99)"/>
    <line class="cls-3" x1="82.41" y1="7.83" x2="5" y2="79.57"/>
</svg>