<svg xmlns="http://www.w3.org/2000/svg" width="320" height="195" viewBox="0 0 320 195">
    <defs>
        <style>
            .cls-1 {
            fill: none;
            stroke: #7230FF;
            stroke-linecap: round;
            stroke-linejoin: round;
            stroke-width: 40px;
            fill-rule: evenodd;
            }
        </style>
    </defs>
    <path class="cls-1" d="M287,34L159,160,33,33"/>
</svg>