<svg xmlns="http://www.w3.org/2000/svg" xmlns:xlink="http://www.w3.org/1999/xlink" viewBox="0 0 512 512">
    <defs>
        <linearGradient id="a" x1="48.82404" y1="121.45836" x2="463.17596" y2="390.54164"
                        gradientUnits="userSpaceOnUse">
            <stop offset="0" stop-color="#09f"/>
            <stop offset="1" stop-color="#7230ff"/>
        </linearGradient>
        <radialGradient id="b" cx="64.32958" cy="397.99919" r="325.11416"
                        gradientTransform="translate(6.38428 6.41481) scale(0.97514 0.97514)"
                        gradientUnits="userSpaceOnUse">
            <stop offset="0.23154" stop-color="#ffbd56"/>
            <stop offset="0.85683" stop-color="#ffbd56" stop-opacity="0"/>
        </radialGradient>
        <radialGradient id="c" cx="437.02476" cy="101.04286" r="286.81198"
                        gradientTransform="translate(6.38428 6.41481) scale(0.97514 0.97514)"
                        gradientUnits="userSpaceOnUse">
            <stop offset="0.23154" stop-color="#e23c58"/>
            <stop offset="0.85683" stop-color="#e23c58" stop-opacity="0"/>
        </radialGradient>
    </defs>
    <circle cx="256" cy="256" r="247" style="fill:url(#a)"/>
    <circle cx="256" cy="256" r="247" style="fill:url(#b)"/>
    <circle cx="256" cy="256" r="247" style="fill:url(#c)"/>
    <path d="M244,396.97V307.0202Q209.44552,352.00262,174.87708,396.97Z" transform="translate(0 0)"
          style="fill-opacity:0.8"/>
    <path d="M268,115.03v90.44311q34.55859-45.22155,69.11707-90.44311Z" transform="translate(0 0)"
          style="fill-opacity:0.8"/>
    <path d="M256,0C114.61511,0,0,114.61511,0,256S114.61511,512,256,512,512,397.38489,512,256,397.38489,0,256,0ZM407.5271,377q-6.66,32.17493-28.99,49.37-22.32,17.205-59.77,17.2H268V470a12,12,0,0,1-24,0V443.57H133.4671q-23.295,0-23.3-23.3a26.48791,26.48791,0,0,1,1.94-9.43,35.55764,35.55764,0,0,1,6.93994-11.65q55.17-71.59506,110.34-143.19L244,236.8783V115.03H193.23706q-17.76,0-27.74,5.27-9.95992,5.265-13.85,17.43c-.01.03-.02.06-.03.1q-2.505,10.23-7.76,15.9-5.265,5.685-16.64,5.68-11.655,0-18.17-6.38-6.51-6.375-4.57-18.03,6.645-32.175,28.98-49.37,22.335-17.205,59.78-17.2H244V42a12,12,0,0,1,24,0V68.43H378.5271q23.295,0,23.3,23.3a26.14867,26.14867,0,0,1-1.94,9.43,51.71618,51.71618,0,0,1-6.94,11.65Q338.13,184.43326,283.20709,256q-7.598,9.90051-15.20709,19.789V396.97h50.76709q17.745,0,27.73-5.27,9.975-5.26493,13.86005-17.42a.44249.44249,0,0,0,.02-.1q2.505-10.23,7.76-15.9,5.265-5.7,16.64-5.69,11.65494,0,18.17,6.38Q409.472,365.345,407.5271,377Z"
          transform="translate(0 0)" style="fill-opacity:0.8"/>
</svg>